Place,Name,BirthDate,BirthYear,Team,WeightClassKg,BodyweightKg,Bench1Kg,Bench2Kg,Bench3Kg,Best3BenchKg,TotalKg,Sex,Division,Event,Equipment
1,Ashatha Poojarthy,1987-08-08,,KTK,52,51.5,70,77.5,-82.5,77.5,77.5,F,Open,B,Single-ply
2,Jyoti Kandhare,1980-10-19,,MAH,52,50.4,-67.5,67.5,-77.5,67.5,67.5,F,Open,B,Single-ply
3,Raj Laxmi Singh,1988-05-15,,JHR,52,51,57.5,60,-62.5,60,60,F,Open,B,Single-ply
4,Deeksha Sharma,1991-12-20,,UP,52,49.6,-40,50,-62.5,50,50,F,Open,B,Single-ply
5,Jasmine Bains,1988-11-25,,DEL,52,50.6,-40,42.5,47.5,47.5,47.5,F,Open,B,Single-ply
1,Anjali Sharma,1999-05-25,,RAJ,57,56,72.5,-77.5,80,80,80,F,Open,B,Single-ply
2,Radha Kumari,1987-02-05,,J&K,57,55.1,37.5,42.5,45,45,45,F,Open,B,Single-ply
3,Ankita Singh,1990-08-03,,DEL,57,56.2,-40,40,45,45,45,F,Open,B,Single-ply
1,Sudha Kumari,,,BIH,63,60.5,-80,80,-95,80,80,F,Open,B,Single-ply
2,N Sushila Devi,1975-04-01,,MNP,63,59.3,30,40,47.5,47.5,47.5,F,Open,B,Single-ply
3,Monika Sharma,1986-02-02,,J&K,63,61.2,40,-45,45,45,45,F,Open,B,Single-ply
1,Iti Sehgal,1983-09-02,,DEL,72,70,50,-60,60,60,60,F,Open,B,Single-ply
2,Kushi Wadhera,1998-09-22,,J&K,72,67.8,30,35,37.5,37.5,37.5,F,Open,B,Single-ply
3,Simran Bumrah,1998-12-04,,J&K,72,72,30,-35,35,35,35,F,Open,B,Single-ply
1,Raj Kumari Yadav,1981-08-15,,RAJ,84,82,72.5,75,80,80,80,F,Open,B,Single-ply
2,Rupali Das,1980-02-22,,WB,84,77.6,55,65,70,70,70,F,Open,B,Single-ply
1,Sathi Mukherji,1994-06-20,,MP,84+,129,-110,110,112.5,112.5,112.5,F,Open,B,Single-ply
2,Sharmila De,1990-10-17,,WB,84+,111.3,100,107.5,-110,107.5,107.5,F,Open,B,Single-ply
3,Chhayya Bhatt,1969-08-27,,FCI,84+,115,75,85,-90,85,85,F,Open,B,Single-ply
4,Konsam Rosida Devi,1991-09-23,,MNP,84+,88,60,72.5,-90,72.5,72.5,F,Open,B,Single-ply
5,Saswati Behera,1985-03-03,,DEL,84+,90.5,-45,45,-52.5,45,45,F,Open,B,Single-ply
1,Diksha Sain,2000-03-30,,DEL,84,80.5,70,77.5,-85,77.5,77.5,F,Sub-Juniors,B,Single-ply
1,K. Sree Lakshmi,1996-10-11,,AP,43,42.7,32.5,35,-37.5,35,35,F,Juniors,B,Single-ply
1,Shushmita Deshmukh,1996-11-06,,MAH,47,46.2,60,65,-67.5,65,65,F,Juniors,B,Single-ply
2,Bharosa Ved,1996-07-20,,RAJ,47,46.3,57.5,62.5,-65,62.5,62.5,F,Juniors,B,Single-ply
3,Bincy Varghese,,,KER,47,46.5,35,37.5,-40,37.5,37.5,F,Juniors,B,Single-ply
1,Sherly Menezes,1997-11-04,,KTK,52,50,45,50,-52.5,50,50,F,Juniors,B,Single-ply
1,Bijlee Bag,1995-08-13,,CHT,57,53.5,75,82.5,-87.5,82.5,82.5,F,Juniors,B,Single-ply
2,Sargam Chouhan,1997-06-15,,MP,57,56.4,65,70,-72.5,70,70,F,Juniors,B,Single-ply
3,Swathi. U.K,1997-03-27,,KTK,57,56.5,47.5,-50,,47.5,47.5,F,Juniors,B,Single-ply
4,Kavya. B.U,1997-11-12,,KTK,57,56.5,30,,,30,30,F,Juniors,B,Single-ply
1,Muskan Vatsas,1998-11-12,,RAJ,63,62.6,-92.5,92.5,-102.5,92.5,92.5,F,Juniors,B,Single-ply
2,Shalini.G,1996-06-25,,KTK,63,63,55,-60,-65,55,55,F,Juniors,B,Single-ply
1,Om Kanwar,1997-05-10,,RAJ,72,72,60,67.5,72.5,72.5,72.5,F,Juniors,B,Single-ply
2,Tanya Maru,1998-08-12,,RAJ,72,70,60,65,-70,65,65,F,Juniors,B,Single-ply
3,Keisham Linda Mang Ang,1998-03-27,,MNP,72,68,40,-45,-45,40,40,F,Juniors,B,Single-ply
1,Usha. R,1997-09-27,,KTK,84,84,67.5,-77.5,-80,67.5,67.5,F,Juniors,B,Single-ply
2,Sanasam Yaisana,,,MNP,84,72.5,40,42.5,-47.5,42.5,42.5,F,Juniors,B,Single-ply
1,Ekta Vishnoi,1974-06-03,,MAH,57,55.5,-45,50,55,55,55,F,Masters 1,B,Single-ply
1,M. Ibemcha,1976-01-01,,MNP,63,62.6,20,25,32.5,32.5,32.5,F,Masters 1,B,Single-ply
1,Shweta Sahni,1978-01-31,,DEL,72,70.7,60,67.5,,67.5,67.5,F,Masters 1,B,Single-ply
1,Poonam,1974-12-08,,DEL,84+,88.2,45,47.5,,47.5,47.5,F,Masters 1,B,Single-ply
2,Shantuna Sharma,1973-04-28,,MP,84+,88.8,32.5,37.5,40,40,40,F,Masters 1,B,Single-ply
1,Sushila Devi,1956-07-15,,RAJ,84,84,30,-40,40,40,40,F,Masters 3,B,Single-ply
1,Rajesh Shukravare,1983-10-05,,MP,59,57.8,140,-147.5,-147.5,140,140,M,Open,B,Single-ply
2,Vickey Kumar,1992-11-22,,BIH,59,58.7,135,137.5,140,140,140,M,Open,B,Single-ply
3,Arjun,1983-05-17,,RAJ,59,57.8,127.5,-132.5,137.5,137.5,137.5,M,Open,B,Single-ply
4,Sunil Kumar,1987-06-21,,RAJ,59,57.4,130,135,-137.5,135,135,M,Open,B,Single-ply
5,Sawan Kumar,1995-05-02,,J&K,59,57.2,115,120,122.5,122.5,122.5,M,Open,B,Single-ply
6,Manish Jaiswal,1990-05-11,,UP,59,57.7,120,-150,-150,120,120,M,Open,B,Single-ply
7,Dileep Sharma,1979-08-10,,MP,59,58.8,117.5,-120,,117.5,117.5,M,Open,B,Single-ply
8,Sanjay Kr Billore,1967-09-26,,OFB,59,59,95,105,,105,105,M,Open,B,Single-ply
1,Jagdeesha,1986-06-01,,KTK,66,65.6,155,160,165,165,165,M,Open,B,Single-ply
2,Sunny Kumar,1994-06-22,,BIH,66,65.1,152.5,-155,,152.5,152.5,M,Open,B,Single-ply
3,Devendra Singh Diwan,1979-02-02,,MP,66,65.8,140,145,150,150,150,M,Open,B,Single-ply
4,Vali Basha,1984-02-01,,KTK,66,65.3,-140,-140,147.5,147.5,147.5,M,Open,B,Single-ply
5,Shiv Charan Singh,1993-10-21,,J&K,66,64.5,120,132.5,-135,132.5,132.5,M,Open,B,Single-ply
6,Mushraf Shabir,1990-02-26,,J&K,66,64.2,115,125,-130,125,125,M,Open,B,Single-ply
7,Ajinkya Vasudeo Joshi,1985-10-24,,MAH,66,65.5,110,115,-117.5,115,115,M,Open,B,Single-ply
DQ,Vipin,,,DEL,66,66,-150,-150,-150,,,M,Open,B,Single-ply
DQ,Kamala Kannan,1985-04-10,,TN,66,65.8,-135,-150,-150,,,M,Open,B,Single-ply
1,S. Tendelu,1976-12-28,,OFB,74,70.4,170,175,182.5,182.5,182.5,M,Open,B,Single-ply
2,Md. Harish Tousif,1994-06-24,,BIH,74,72.4,175,182.5,-187.5,182.5,182.5,M,Open,B,Single-ply
3,Vikrant Singh,1989-10-27,,J&K,74,73.72,-160,160,-170,160,160,M,Open,B,Single-ply
4,Prabir Chatterjee,1988-08-25,,JHR,74,73.58,130,135,140,140,140,M,Open,B,Single-ply
5,Babulal,1983-01-01,,UP,74,67.86,115,120,-125,120,120,M,Open,B,Single-ply
6,Sajan Sharma,1994-05-29,,J&K,74,68.4,-105,-105,105,105,105,M,Open,B,Single-ply
1,Karan Kumar,1990-10-02,,BIH,83,76.65,215,222.5,-230,222.5,222.5,M,Open,B,Single-ply
2,Vincent Prakash Carlo,1972-01-26,,KTK,83,78.9,185,197.5,-202.5,197.5,197.5,M,Open,B,Single-ply
3,Pradeep Kumar,1988-05-04,,KTK,83,80.6,192.5,197.5,-202.5,197.5,197.5,M,Open,B,Single-ply
4,Sanjay Thapa,1986-01-01,,DEL,83,81.06,-182.5,192.5,-202.5,192.5,192.5,M,Open,B,Single-ply
5,Narender Pal Singh,1980-07-28,,J&K,83,81.01,182.5,190,-202.5,190,190,M,Open,B,Single-ply
6,Mahender Singh,,1984,JHR,83,82.29,175,185,-192.5,185,185,M,Open,B,Single-ply
7,Sunil Gujrati,1983-10-27,,RAJ,83,81.47,165,175,182.5,182.5,182.5,M,Open,B,Single-ply
8,Manoj Kumar Rathaur,1989-12-10,,UP,83,81.36,155,-165,-165,155,155,M,Open,B,Single-ply
DQ,Yogeet Chander,1989-10-07,,PUN,83,77.15,-130,-130,,,,M,Open,B,Single-ply
DQ,Hemant Kumar Mohnot,1988-01-28,,RAJ,83,81.37,-175,,,,,M,Open,B,Single-ply
DQ,Syed Wasil Raza,1994-03-30,,UP,83,75.84,-100,-100,,,,M,Open,B,Single-ply
1,Alok Raj,1989-01-16,,BIH,93,92.01,220,-232.5,-232.5,220,220,M,Open,B,Single-ply
2,Arshad Ulla,1993-06-11,,KTK,93,93,185,-195,195,195,195,M,Open,B,Single-ply
3,Adil Ashraf Khan,1988-03-04,,J&K,93,91.73,180,-187.5,187.5,187.5,187.5,M,Open,B,Single-ply
4,Nishant Kumar,1982-02-03,,BIH,93,87.03,-165,165,-175,165,165,M,Open,B,Single-ply
5,Utsav Singh Sisodiya,1994-04-06,,MP,93,92.54,-157.5,157.5,-160,157.5,157.5,M,Open,B,Single-ply
6,Ashish Jaiman,1988-11-11,,RAJ,93,83.1,-152.5,152.5,-157.5,152.5,152.5,M,Open,B,Single-ply
7,Ravi Shukla,1990-08-12,,UP,93,86.44,80,90,-92.5,90,90,M,Open,B,Single-ply
1,Vijaya Kanchan,1968-07-24,,KTK,105,105,220,-230,-230,220,220,M,Open,B,Single-ply
2,Kalyan Karde,1989-03-21,,MAH,105,100.49,182.5,187.5,192.5,192.5,192.5,M,Open,B,Single-ply
3,Vikash Kumar,1992-07-27,,BIH,105,103.09,-185,185,192.5,192.5,192.5,M,Open,B,Single-ply
4,Vashudav Sarswat,1986-09-24,,RAJ,105,99.56,140,170,182.5,182.5,182.5,M,Open,B,Single-ply
5,Gurdeep Bakshi,1982-09-07,,HAR,105,103.67,180,-190,-190,180,180,M,Open,B,Single-ply
6,Nitish Kumar,1993-02-10,,BIH,105,95.54,145,150,-155,150,150,M,Open,B,Single-ply
7,T. Khadar Basha,1992-07-16,,AP,105,95.85,110,-130,130,130,130,M,Open,B,Single-ply
8,Bhupendra Kr Soni,1979-09-03,,OFB,105,93.89,100,,,100,100,M,Open,B,Single-ply
1,Dr Aurangazeb Khurrum,1974-11-16,,WB,120,111.1,200,-210,210,210,210,M,Open,B,Single-ply
2,Pratik Jadhav,1991-05-12,,MAH,120,112.21,192.5,197.5,202.5,202.5,202.5,M,Open,B,Single-ply
3,Vijay Kumar Sharma,1979-01-12,,J&K,120,106.62,165,185,197.5,197.5,197.5,M,Open,B,Single-ply
4,Deepak Kumar,1988-02-04,,MP,120,105.1,160,170,-180,170,170,M,Open,B,Single-ply
5,A. Jaya Karthik,1989-05-26,,OFB,120,106.32,110,,,110,110,M,Open,B,Single-ply
1,Vinod Raj,1988-12-26,,KTK,120+,130.16,230,240,245,245,245,M,Open,B,Single-ply
2,Ajay Gogna,1988-06-01,,PUN,120+,134.11,170,-200,207.5,207.5,207.5,M,Open,B,Single-ply
1,Anil Kumar Sharma,2000-08-20,,UP,53,52,60,65,70,70,70,M,Sub-Juniors,B,Single-ply
2,Ranjith Kumar. M,2000-07-09,,KTK,53,49.9,60,-70,-70,60,60,M,Sub-Juniors,B,Single-ply
3,Manish Kumar Dixit,2002-07-12,,UP,53,52.4,57.5,-65,-67.5,57.5,57.5,M,Sub-Juniors,B,Single-ply
1,Rakshith.D.Bolar,2000-06-03,,KTK,59,58,92.5,97.5,-100,97.5,97.5,M,Sub-Juniors,B,Single-ply
2,Gopal Kumar,2001-05-10,,JHR,59,57.7,-77.5,80,-97.5,80,80,M,Sub-Juniors,B,Single-ply
3,Karan Bains,2002-10-20,,PUN,59,54.1,50,57.5,-62.5,57.5,57.5,M,Sub-Juniors,B,Single-ply
1,Santhosh. M.K,2000-06-16,,KTK,66,64.5,65,72.5,82.5,82.5,82.5,M,Sub-Juniors,B,Single-ply
2,Vance Fallon Carlo,2003-01-12,,KTK,66,60,60,70,80,80,80,M,Sub-Juniors,B,Single-ply
1,Yagyesh Ojha,2000-01-20,,RAJ,74,68.74,107.5,112.5,-117.5,112.5,112.5,M,Sub-Juniors,B,Single-ply
1,Vishal,2000-03-07,,DEL,83,80.42,100,115,135,135,135,M,Sub-Juniors,B,Single-ply
2,Pankaj,2002-03-14,,DEL,83,74.99,120,125,-140,125,125,M,Sub-Juniors,B,Single-ply
3,Karam Singh,2000-07-18,,PUN,83,80.7,105,110,-115,110,110,M,Sub-Juniors,B,Single-ply
DQ,Jogender Ram,2000-05-05,,JHR,83,82.3,-150,-150,-150,,,M,Sub-Juniors,B,Single-ply
1,Varshith Rao,2002-02-25,,KTK,93,89.05,120,130,-140,130,130,M,Sub-Juniors,B,Single-ply
2,Sourav Dey,2002-05-27,,JHR,93,93,90,-95,95,95,95,M,Sub-Juniors,B,Single-ply
3,Sarthak Chaturvedi,2001-12-18,,UP,93,90.46,65,70,-72.5,70,70,M,Sub-Juniors,B,Single-ply
1,Kh. Sunder,2000-03-05,,MANI,105,93.25,125,-137.5,137.5,137.5,137.5,M,Sub-Juniors,B,Single-ply
2,Sidharth Khatri,2001-09-23,,DEL,105,104.52,130,-160,,130,130,M,Sub-Juniors,B,Single-ply
1,Jai Shankar Ojha,2000-12-20,,RAJ,120+,121.5,92.5,100,107.5,107.5,107.5,M,Sub-Juniors,B,Single-ply
2,Aniket Khatri,2000-04-20,,DEL,120+,120.2,105,-115,-115,105,105,M,Sub-Juniors,B,Single-ply
1,Gulten Rawani,1997-10-20,,JHR,53,52.5,90,97.5,-100,97.5,97.5,M,Juniors,B,Single-ply
2,K. Narendra,1998-11-02,,AP,53,53,80,90,92.5,92.5,92.5,M,Juniors,B,Single-ply
3,Rajkumar Yadav,1995-08-09,,MP,53,51,77.5,-82.5,-82.5,77.5,77.5,M,Juniors,B,Single-ply
4,Muhammed Nijad,1998-07-14,,KER,53,51.8,67.5,,,67.5,67.5,M,Juniors,B,Single-ply
1,Subham Dey,1995-11-03,,ASM,59,57.9,97.5,102.5,107.5,107.5,107.5,M,Juniors,B,Single-ply
2,Wilmin Wilson,1997-04-06,,KER,59,58.3,85,100,105,105,105,M,Juniors,B,Single-ply
3,Aditya Sharma #2,1996-03-20,,J&K,59,59,100,105,-110,105,105,M,Juniors,B,Single-ply
4,Nirmal N S,1999-06-26,,TN,59,58,102.5,-105,-105,102.5,102.5,M,Juniors,B,Single-ply
5,Niraj Kumar,1998-04-15,,BIH,59,59,-97.5,97.5,-105,97.5,97.5,M,Juniors,B,Single-ply
6,Tanmesh Bhomkar,1999-06-10,,GOA,59,56.2,80,85,-90,85,85,M,Juniors,B,Single-ply
7,V. Vishnu Vardhan,1999-12-23,,AP,59,59,65,72.5,77.5,77.5,77.5,M,Juniors,B,Single-ply
8,Prince Piyush Tandon,1999-01-17,,CHT,59,59,45,-50,,45,45,M,Juniors,B,Single-ply
1,Mohammad Rameez,1995-07-27,,KTK,66,65.6,135,140,145,145,145,M,Juniors,B,Single-ply
2,Akhilesh Kumar Gautam,1996-07-20,,UP,66,61,125,137.5,-145,137.5,137.5,M,Juniors,B,Single-ply
3,Sudipt Rana,,1996,JHR,66,65.9,130,137.5,-142.5,137.5,137.5,M,Juniors,B,Single-ply
4,Gursimran Singh,1995-02-12,,PUN,66,63.65,-125,125,-130,125,125,M,Juniors,B,Single-ply
5,Priyanshu Vats,1998-04-11,,DEL,66,66,110,117.5,120,120,120,M,Juniors,B,Single-ply
6,Vinay Vastrakar,1999-10-12,,CHT,66,65.1,107.5,-115,-115,107.5,107.5,M,Juniors,B,Single-ply
7,Harshit Singh,1999-02-18,,UP,66,64.5,85,92.5,97.5,97.5,97.5,M,Juniors,B,Single-ply
8,Rajat Chipkar,1995-04-16,,GOA,66,64.7,80,90,-100,90,90,M,Juniors,B,Single-ply
DQ,Prahlad Singh,1995-06-21,,RAJ,66,64,-130,-130,-130,,,M,Juniors,B,Single-ply
1,Maumin Khan,1997-02-11,,UP,74,71.8,130,-140,140,140,140,M,Juniors,B,Single-ply
2,Vivek Kr Gupta,1995-12-05,,BIH,74,73.7,130,135,137.5,137.5,137.5,M,Juniors,B,Single-ply
3,Rahul Bhahat,1997-02-28,,JHR,74,73.33,120,130,132.5,132.5,132.5,M,Juniors,B,Single-ply
4,T. Parvateswam,1998-02-14,,AP,74,73.61,125,132.5,-135,132.5,132.5,M,Juniors,B,Single-ply
5,Bhavani Shankar Vyas,1996-09-01,,RAJ,74,71.6,115,120,-122.5,120,120,M,Juniors,B,Single-ply
6,Abhishek Shankar,1999-09-02,,UP,74,73.07,117.5,-125,-125,117.5,117.5,M,Juniors,B,Single-ply
DQ,Vikram Singh Shekhawat,1999-06-20,,RAJ,74,70.12,-120,,,,,M,Juniors,B,Single-ply
1,Jyothis,1995-10-24,,KER,83,83,-137.5,150,155,155,155,M,Juniors,B,Single-ply
2,Dhaneshwar Sahu,,1995,JHR,83,79.48,-140,145,152.5,152.5,152.5,M,Juniors,B,Single-ply
3,B. Harish Kumar,1997-06-12,,AP,83,83,130,137.5,142.5,142.5,142.5,M,Juniors,B,Single-ply
4,Vikram Deep,1995-04-23,,J&K,83,80.52,140,-150,-150,140,140,M,Juniors,B,Single-ply
5,Shamon K. Shaji,1998-11-02,,KER,83,77.18,90,105,-117.5,105,105,M,Juniors,B,Single-ply
6,V. Siva Nagaiah,1996-05-12,,AP,83,82.46,90,-115,-125,90,90,M,Juniors,B,Single-ply
DQ,Aditya Paliwal,,,DEL,83,82.16,-140,-140,-140,,,M,Juniors,B,Single-ply
1,Anuraj. P.M,1998-02-05,,KER,93,91.14,-135,150,160,160,160,M,Juniors,B,Single-ply
2,Ashish Kumar,1996-06-29,,RAJ,93,89.91,140,150,155,155,155,M,Juniors,B,Single-ply
3,Arun Kumar,1996-02-09,,HAR,93,88.25,140,145,-150,145,145,M,Juniors,B,Single-ply
4,Shrikant Raut,1995-10-30,,MAH,93,92.06,-145,145,-157.5,145,145,M,Juniors,B,Single-ply
5,Mohammed Farooq,1999-05-13,,KER,93,83.86,110,120,122.5,122.5,122.5,M,Juniors,B,Single-ply
6,P. Channakesulu,1997-12-10,,AP,93,91.66,100,110,120,120,120,M,Juniors,B,Single-ply
7,Goutam Jha,1995-05-11,,JHR,93,90.04,110,-120,,110,110,M,Juniors,B,Single-ply
1,Shivam Sharma,1995-10-15,,DEL,105,99.84,180,187.5,192.5,192.5,192.5,M,Juniors,B,Single-ply
2,Inder Singh,1996-11-10,,DEL,105,98.55,180,190,,190,190,M,Juniors,B,Single-ply
3,Kishore.P.Xavier,1995-12-17,,KER,105,101.63,160,175,-192.5,175,175,M,Juniors,B,Single-ply
DQ,Prema Kumar Nayak,1996-10-18,,KTK,105,101.82,-160,-160,,,,M,Juniors,B,Single-ply
1,Israr Pasha,1999-01-26,,KTK,120,112.6,125,-135,-135,125,125,M,Juniors,B,Single-ply
2,Darshan Chandrakantmore,1995-11-03,,MAH,120,105.2,105,-115,-115,105,105,M,Juniors,B,Single-ply
1,Mahesh Raskar,1996-11-20,,MAH,120+,137.41,-160,-160,160,160,160,M,Juniors,B,Single-ply
2,Ankit Khatri,1996-12-19,,DEL,120+,135.27,120,125,132.5,132.5,132.5,M,Juniors,B,Single-ply
3,Abhishek B. Horkeri,1998-06-08,,KTK,120+,132.21,110,120,-130,120,120,M,Juniors,B,Single-ply
1,Eshwara N,1970-10-05,,KTK,59,58.7,75,85,90,90,90,M,Masters 1,B,Single-ply
1,Sunil Nagori,1976-02-07,,RAJ,66,63.9,130,140,-150,140,140,M,Masters 1,B,Single-ply
2,Sajeev Kumar.K.N,1971-01-07,,KER,66,65.2,75,85,90,90,90,M,Masters 1,B,Single-ply
1,Nitin Mhalaskar,1977-09-24,,MAH,74,72.18,125,130,135,135,135,M,Masters 1,B,Single-ply
2,Jayappa Lamani,1972-07-23,,KTK,74,72.26,120,-130,130,130,130,M,Masters 1,B,Single-ply
3,Dinesh Khanna,1975-10-11,,RAJ,74,73.46,107.5,115,122.5,122.5,122.5,M,Masters 1,B,Single-ply
4,Surinder Verma,1975-03-02,,DEL,74,71.29,110,-120,120,120,120,M,Masters 1,B,Single-ply
5,Ashok Mate,1972-10-05,,MAH,74,72.96,107.5,112.5,115,115,115,M,Masters 1,B,Single-ply
6,Ghanshyam Singh Goyal,1974-10-17,,RAJ,74,72.69,-110,110,112.5,112.5,112.5,M,Masters 1,B,Single-ply
7,Balram Vastrakar,1970-11-11,,CHT,74,67.37,105,-110,-110,105,105,M,Masters 1,B,Single-ply
1,Anand S. Mandia,1971-10-07,,DEL,83,82.59,140,150,155,155,155,M,Masters 1,B,Single-ply
2,Dr. Balagovind Tiwari,1972-10-29,,AP,83,82.5,135,145,-155,145,145,M,Masters 1,B,Single-ply
3,S. Manikandan,1976-07-13,,TN,83,77.72,130,-135,135,135,135,M,Masters 1,B,Single-ply
4,Kamaym Singh,1976-05-02,,JHR,83,80.6,110,117.5,-135,117.5,117.5,M,Masters 1,B,Single-ply
DQ,Balveer Singh,1973-12-08,,RAJ,83,80.76,-122.5,-125,-132.5,,,M,Masters 1,B,Single-ply
1,Ravinder Singh,1975-12-27,,HAR,93,92.75,-170,170,180,180,180,M,Masters 1,B,Single-ply
2,Anup Verma,1978-07-01,,MP,93,92.21,150,157.5,162.5,162.5,162.5,M,Masters 1,B,Single-ply
3,Rajesh Kumar Singh,1975-01-01,,JHR,93,86.2,150,155,-162.5,155,155,M,Masters 1,B,Single-ply
4,Rajhans Mehandale,1972-03-26,,MAH,93,85.38,125,-132.5,142.5,142.5,142.5,M,Masters 1,B,Single-ply
5,Lohith Muniraj,1977-06-13,,KTK,93,92.45,130,142.5,-150,142.5,142.5,M,Masters 1,B,Single-ply
6,Ritesh Sharma,1976-03-05,,RAJ,93,91.87,-125,125,-130,125,125,M,Masters 1,B,Single-ply
DQ,Mahender Kumar Sharma,1976-04-24,,JHR,93,92.25,-145,-150,-150,,,M,Masters 1,B,Single-ply
1,N. Subramanya,1974-08-14,,KTK,105,103.96,190,200,205,205,205,M,Masters 1,B,Single-ply
2,Ganesh Kini,1970-12-15,,KTK,105,101.4,115,122.5,-125,122.5,122.5,M,Masters 1,B,Single-ply
1,Neeraj Chawla,1976-06-17,,DEL,120,113.77,180,-190,,180,180,M,Masters 1,B,Single-ply
2,Rajaram Sharma,1972-06-10,,RAJ,120,112.81,130,-140,,130,130,M,Masters 1,B,Single-ply
1,Dharminder Sharma,,,DEL,120+,124.1,150,160,170,170,170,M,Masters 1,B,Single-ply
2,Mohan Raj,1972-01-05,,KTK,120+,120.12,110,-120,120,120,120,M,Masters 1,B,Single-ply
1,Ganesh Thokkottu,1968-06-01,,KTK,59,56.6,95,-97.5,-97.5,95,95,M,Masters 2,B,Single-ply
2,Zafar Azmi,1968-04-10,,MP,59,58.2,-90,90,-97.5,90,90,M,Masters 2,B,Single-ply
3,Sainudheen,1968-05-28,,KER,59,58.4,80,90,-97.5,90,90,M,Masters 2,B,Single-ply
1,Arun Sharma,1962-10-02,,DEL,66,65.15,122.5,-132.5,,122.5,122.5,M,Masters 2,B,Single-ply
2,Siba Gogoi,1966-09-01,,ASM,66,65,102.5,107.5,110,110,110,M,Masters 2,B,Single-ply
3,U. Laxman,1965-06-01,,KTK,66,62.5,100,107.5,-110,107.5,107.5,M,Masters 2,B,Single-ply
4,Balai Halder,1964-01-01,,WB,66,65.5,92.5,97.5,-102.5,97.5,97.5,M,Masters 2,B,Single-ply
5,Ghanshyam Kumawat,1964-04-13,,RAJ,66,64.5,82.5,90,-102.5,90,90,M,Masters 2,B,Single-ply
1,Suryanarayanan,1968-05-25,,KER,74,73.97,-110,110,125,125,125,M,Masters 2,B,Single-ply
2,Umesh Shankla,1968-06-20,,RAJ,74,72.41,110,115,120,120,120,M,Masters 2,B,Single-ply
3,Hemachandra,1964-10-27,,KTK,74,73.31,115,120,-122.5,120,120,M,Masters 2,B,Single-ply
4,Trilok Ram Choudhary,,,RAJ,74,72.39,-110,110,-115,110,110,M,Masters 2,B,Single-ply
1,Suraj Ram Pawar,,,JHR,83,79.78,-145,145,-147.5,145,145,M,Masters 2,B,Single-ply
2,Raj Kumar,1964-01-04,,DEL,83,76.52,-142.5,142.5,-145,142.5,142.5,M,Masters 2,B,Single-ply
3,Gilbert Dias,1964-02-25,,KTK,83,77.32,120,125,130,130,130,M,Masters 2,B,Single-ply
DQ,Venu E. N,1966-03-05,,KER,83,82.95,-130,-140,-140,,,M,Masters 2,B,Single-ply
1,Shashidar,1967-01-20,,KTK,93,87,-110,-110,110,110,110,M,Masters 2,B,Single-ply
1,Sanjay Saxena,1964-10-03,,MP,105,100.47,140,-150,150,150,150,M,Masters 2,B,Single-ply
2,G. Ramaswamy,1968-03-02,,AP,105,98.4,115,-125,125,125,125,M,Masters 2,B,Single-ply
3,Sabir. A,1965-04-20,,KER,105,94.67,110,120,-125,120,120,M,Masters 2,B,Single-ply
4,Satvir Singh,1962-02-24,,PUN,105,94.65,100,105,-110,105,105,M,Masters 2,B,Single-ply
DQ,E. Sanyasi Rao,1964-05-25,,AP,105,94.53,-110,-120,-125,,,M,Masters 2,B,Single-ply
1,Shareef Khan,1959-05-15,,MP,120,117.57,70,90,100,100,100,M,Masters 2,B,Single-ply
2,Shivananda.A,1966-01-07,,KTK,120,105.2,75,80,-85,80,80,M,Masters 2,B,Single-ply
1,Goutam Banerjee,1961-07-04,,WB,120+,134.1,100,120,125,125,125,M,Masters 2,B,Single-ply
1,Praveen Kumar,1952-06-05,,DEL,66,62.6,80,85,92.5,92.5,92.5,M,Masters 3,B,Single-ply
2,Ramesh Chandra Namdev,1958-03-24,,MP,66,62.4,62.5,70,77.5,77.5,77.5,M,Masters 3,B,Single-ply
1,Ravi Kumar,1955-09-16,,KTK,74,72.33,-100,100,110,110,110,M,Masters 3,B,Single-ply
2,Jyotirmoy Burman,1956-12-30,,WB,74,72.9,95,102.5,107.5,107.5,107.5,M,Masters 3,B,Single-ply
3,Satpal,1958-07-06,,DEL,74,73,100,107.5,-110,107.5,107.5,M,Masters 3,B,Single-ply
4,Vishan Singh Chouhan,1952-08-03,,RAJ,74,71.52,90,95,100,100,100,M,Masters 3,B,Single-ply
1,Inderjeet Singh,1954-02-07,,JHR,83,81,135,-142.5,-150,135,135,M,Masters 3,B,Single-ply
2,Harish Kumar,1952-11-15,,KTK,83,82,102.5,105,-107.5,105,105,M,Masters 3,B,Single-ply
3,Yadava Suvarna,1950-05-08,,KTK,83,75.81,92.5,-97.5,97.5,97.5,97.5,M,Masters 3,B,Single-ply
4,Uthama Kumar,1954-04-28,,KER,83,83,80,-90,-100,80,80,M,Masters 3,B,Single-ply
1,Manjunath Mallya,1956-05-08,,KTK,105,93.28,110,115,117.5,117.5,117.5,M,Masters 3,B,Single-ply
2,Joydeb Ghosh,1957-09-02,,WB,105,93.1,-105,105,115,115,115,M,Masters 3,B,Single-ply
1,Chander Kant Bhalla,1959-03-03,,JHR,120,115.66,115,125,132.5,132.5,132.5,M,Masters 3,B,Single-ply
1,Milan Kr. Dey,1945-09-02,,WB,66,62.2,70,,,70,70,M,Masters 4,B,Single-ply
1,Manisha Sharma,1994-08-01,,UP,47,45.51,27.5,30,-32.5,30,30,F,Open,B,Raw
2,N. Sunita Devi,1980-09-17,,MNP,47,44.85,-20,20,25,25,25,F,Open,B,Raw
1,Akhatha Poojarthy,1987-08-08,,KTK,52,51.1,60,65,70,70,70,F,Open,B,Raw
2,Raj Laxmi Singh,1988-05-15,,JHR,52,50.4,55,-60,-60,55,55,F,Open,B,Raw
3,Jyoti Kandhare,1980-10-19,,MAH,52,50.79,50,52.5,-57.5,52.5,52.5,F,Open,B,Raw
4,Soni Kumari,1987-07-23,,BIH,52,50.71,37.5,42.5,45,45,45,F,Open,B,Raw
5,Jasmine Bains,1988-11-25,,DEL,52,51,-42.5,42.5,45,45,45,F,Open,B,Raw
6,Deeksha Sharma,1991-12-20,,UP,52,50.34,35,37.5,-45,37.5,37.5,F,Open,B,Raw
1,Bhavana Bisht,1985-03-03,,UP,57,57,40,50,57.5,57.5,57.5,F,Open,B,Raw
2,Anjali Sharma,1999-05-25,,RAJ,57,56.4,47.5,52.5,55,55,55,F,Open,B,Raw
3,Anjana Devi,1989-12-01,,J&K,57,55.8,40,45,-47.5,45,45,F,Open,B,Raw
4,Radha Kumari,1987-02-05,,J&K,57,54.72,37.5,42.5,-45,42.5,42.5,F,Open,B,Raw
5,Tulika Chkraborty,1994-02-27,,CHT,57,56,27.5,32.5,-35,32.5,32.5,F,Open,B,Raw
1,Tapasi Chakraborty,1985-12-04,,WB,63,62.2,55,60,-62.5,60,60,F,Open,B,Raw
2,Anita Soni,,1992,JHR,63,63,40,42.5,-47.5,42.5,42.5,F,Open,B,Raw
3,Monika Sharma,1986-02-02,,J&K,63,61.2,35,37.5,-40,37.5,37.5,F,Open,B,Raw
4,Shashi Kumari,1987-09-17,,JHR,63,57.1,-30,30,-42.5,30,30,F,Open,B,Raw
DQ,M. Ibemcha Devi,1976-01-01,,MNP,57,55.8,-35,-35,-35,,,F,Open,B,Raw
1,Bithika Mondal,1992-09-12,,WB,72,68.3,60,65,-67.5,65,65,F,Open,B,Raw
2,Iti Sehgal,1983-09-02,,DEL,72,69.1,50,55,-60,55,55,F,Open,B,Raw
3,Simran Bumrah,1998-12-04,,J&K,72,72,30,32.5,-35,32.5,32.5,F,Open,B,Raw
4,Meena,1994-01-23,,CHT,72,70,-30,30,-35,30,30,F,Open,B,Raw
1,Chaitali Bar,1986-10-05,,WB,84,79.35,52.5,60,65,65,65,F,Open,B,Raw
2,Raj Kumari Yadav,1981-08-15,,RAJ,84,81,57.5,62.5,-65,62.5,62.5,F,Open,B,Raw
3,N. Dineshori Devi,1973-02-01,,MNP,84,75.8,25,30,42.5,42.5,42.5,F,Open,B,Raw
1,Sharmila De,1990-10-17,,WB,84+,111.8,85,92.5,97.5,97.5,97.5,F,Open,B,Raw
2,Sathi Mukherji,1994-06-20,,MP,84+,130.8,72.5,82.5,-100,82.5,82.5,F,Open,B,Raw
3,Chhayya Bhatt,1969-08-27,,FCI,84+,116.4,65,72.5,75,75,75,F,Open,B,Raw
4,Jayita Majumdar,1991-09-15,,WB,84+,100.5,65,70,72.5,72.5,72.5,F,Open,B,Raw
5,Saswati Behera,1985-03-03,,DEL,84+,90.3,45,-50,-55,45,45,F,Open,B,Raw
6,Beuty Bhattacharjee,1987-05-24,,JHR,84+,96.4,45,-50,-50,45,45,F,Open,B,Raw
1,Preeti Soni,2002-10-01,,CHT,57,56.5,45,50,52.5,52.5,52.5,F,Sub-Juniors,B,Raw
1,D. Bhavika,2000-02-02,,CHT,84+,88.7,45,52.5,55,55,55,F,Sub-Juniors,B,Raw
2,Tamnna Singh,2003-04-06,,MP,84+,87.64,30,-35,-35,30,30,F,Sub-Juniors,B,Raw
3,Panchami,2004-02-25,,KTK,84+,95.3,-30,30,-35,30,30,F,Sub-Juniors,B,Raw
1,K. Sree Lakshmi,1996-10-11,,AP,43,42.96,30,32.5,-35,32.5,32.5,F,Juniors,B,Raw
1,Sushmita Deshmukh,1996-11-06,,MAH,47,46.9,52.5,55,-57.5,55,55,F,Juniors,B,Raw
2,Bharosa Ved,1996-07-20,,RAJ,47,46.5,42.5,47.5,-52.5,47.5,47.5,F,Juniors,B,Raw
3,Karuna Sharma,1996-01-16,,KTK,47,46.12,37.5,40,42.5,42.5,42.5,F,Juniors,B,Raw
4,Bincy Varghese,1999-02-24,,KER,47,46.4,35,-40,-40,35,35,F,Juniors,B,Raw
DQ,Mayavanshi Richa.H,1999-06-24,,GUJ,47,47,-22.5,-22.5,-22.5,,,F,Juniors,B,Raw
1,Anjani Bari,1998-06-19,,JHR,52,51.12,40,45,47.5,47.5,47.5,F,Juniors,B,Raw
2,Sherly Menezes,1997-11-04,,KTK,52,50.29,30,35,42.5,42.5,42.5,F,Juniors,B,Raw
3,Neema Kumari,1997-01-06,,KTK,52,49,40,-45,-45,40,40,F,Juniors,B,Raw
4,Sunita Devi,1999-12-11,,HAR,52,49,32.5,-35,-35,32.5,32.5,F,Juniors,B,Raw
1,Sargam Chouhan,1997-06-15,,MP,57,56,55,60,-62.5,60,60,F,Juniors,B,Raw
2,Nidhi Nupur,1995-11-12,,JHR,57,54.6,37.5,-42.5,45,45,45,F,Juniors,B,Raw
3,Swathi. U.K,1997-03-27,,KTK,57,57,35,40,-42.5,40,40,F,Juniors,B,Raw
4,Kavya. B.U,1997-11-12,,KTK,57,56.4,30,-32.5,-32.5,30,30,F,Juniors,B,Raw
5,Madhu Rani,1997-09-09,,HAR,57,56.4,25,30,-35,30,30,F,Juniors,B,Raw
1,Monalisa Sardar,1999-01-05,,WB,63,63,45,47.5,-50,47.5,47.5,F,Juniors,B,Raw
2,Shalini.G,1996-06-25,,KTK,63,62.8,42.5,-47.5,-47.5,42.5,42.5,F,Juniors,B,Raw
3,Ranjana Chauhan,1995-07-14,,UP,63,59.6,-25,27.5,32.5,32.5,32.5,F,Juniors,B,Raw
1,Manisha Ekka,1995-10-25,,JHR,72,72,57.5,60,-62.5,60,60,F,Juniors,B,Raw
2,Om Kanwar,1997-05-10,,RAJ,72,71.5,47.5,52.5,55,55,55,F,Juniors,B,Raw
3,Vaishnavi. K.S,1996-12-26,,KER,72,70.85,35,40,-42.5,40,40,F,Juniors,B,Raw
4,Keisham Linda Mang Ang,1998-03-27,,MNP,72,67,30,-37.5,-37.5,30,30,F,Juniors,B,Raw
1,Diksha Sain,2000-03-03,,DEL,84,81.17,65,70,75,75,75,F,Juniors,B,Raw
2,Usha. R,1997-09-27,,KTK,84,83.9,50,60,-62.5,60,60,F,Juniors,B,Raw
3,Sanasam Yaisana,1998-03-03,,MNP,84,72.2,30,37.5,-42.5,37.5,37.5,F,Juniors,B,Raw
1,Aastha Bhadani,1996-09-06,,JHR,84+,88.35,32.5,35,-37.5,35,35,F,Juniors,B,Raw
1,Ekta Vishnoi,1974-06-03,,MAH,57,55.6,40,45,50,50,50,F,Masters 1,B,Raw
1,Ng Tombi Devi,1969-01-01,,MNP,63,58.2,30,-35,35,35,35,F,Masters 1,B,Raw
1,Shweta Sahni,1978-01-31,,DEL,72,70.22,50,-55,55,55,55,F,Masters 1,B,Raw
1,S. Romita Devi,1970-09-01,,MNP,84,83.3,30,35,40,40,40,F,Masters 1,B,Raw
1,Laxmi Sharma,1976-08-14,,JHR,84+,96.5,50,55,60,60,60,F,Masters 1,B,Raw
2,Poonam,1974-12-08,,DEL,84+,89,45,50,-55,50,50,F,Masters 1,B,Raw
3,Shantuna Sharma,1973-04-28,,MP,84+,89.08,30,35,-40,35,35,F,Masters 1,B,Raw
1,A. Somibala,,,MNP,57,52.1,20,25,-30,25,25,F,Masters 2,B,Raw
1,Gayatri Tomar,1966-11-04,,MP,84+,84.01,40,47.5,-55,47.5,47.5,F,Masters 2,B,Raw
1,Sushila Devi,1950-12-10,,RAJ,84,83.3,-30,-30,30,30,30,F,Masters 3,B,Raw
1,Chandrashekar S.K,1983-05-22,,KTK,59,56.55,120,122.5,125,125,125,M,Open,B,Raw
2,Bichitra Nayak,1993-07-07,,ODI,59,58.25,115,125,-132.5,125,125,M,Open,B,Raw
3,Sawan Kumar,1995-05-02,,J&K,59,58.15,110,117.5,122.5,122.5,122.5,M,Open,B,Raw
4,Vickey Kumar,1992-11-22,,BIH,59,58.7,117.5,-122.5,-122.5,117.5,117.5,M,Open,B,Raw
5,Rajesh Shukravare,1983-10-05,,MP,59,58.14,105,110,-112.5,110,110,M,Open,B,Raw
6,Thirthesha M.K,1992-10-15,,KTK,59,57.6,105,-112.5,-117.5,105,105,M,Open,B,Raw
7,Arjun,1983-05-17,,RAJ,59,57.6,100,-107.5,,100,100,M,Open,B,Raw
8,T. Durai Raj,1979-04-10,,TN,59,58.3,95,-100,,95,95,M,Open,B,Raw
1,Vali Basha,1984-02-01,,KTK,66,64.6,125,132.5,135,135,135,M,Open,B,Raw
2,Biswajeet Jena,1995-06-15,,ODI,66,65.05,120,130,135,135,135,M,Open,B,Raw
3,Jagdeesha,1986-06-01,,KTK,66,65,125,132.5,-135,132.5,132.5,M,Open,B,Raw
4,Somnath Mondal,1988-05-26,,WB,66,65.41,122.5,130,132.5,132.5,132.5,M,Open,B,Raw
5,Sandeep Singh,1992-11-12,,J&K,66,65.95,120,130,-137.5,130,130,M,Open,B,Raw
6,Vipin Kumar,,,DEL,66,65.99,125,130,-132.5,130,130,M,Open,B,Raw
7,Shiv Charan Singh,1993-10-21,,J&K,66,65,110,120,122.5,122.5,122.5,M,Open,B,Raw
8,Sunny Kumar,1994-06-22,,BIH,66,65.8,120,122.5,-130,122.5,122.5,M,Open,B,Raw
9,Rahul Prasad,,,GOA,66,64.43,90,110,-115,110,110,M,Open,B,Raw
10,Rakesh Malik,1982-05-01,,CHT,66,63.7,102.5,105,-107.5,105,105,M,Open,B,Raw
11,Nilesh Bhoir,1993-09-10,,MAH,66,64.23,95,-100,100,100,100,M,Open,B,Raw
12,Munendra Tyagi,1994-03-07,,UP,66,65.8,85,-95,95,95,95,M,Open,B,Raw
13,Singhrotia Hasmukh.J,1986-09-29,,GUJ,66,62.89,75,80,87.5,87.5,87.5,M,Open,B,Raw
1,J.N.Shrinivas,1976-01-01,,KTK,74,73.4,150,160,-165,160,160,M,Open,B,Raw
2,Md. Harish Tausif,1994-06-24,,BIH,74,72.7,145,150,152.5,152.5,152.5,M,Open,B,Raw
3,Ujjal Roy,1987-01-17,,JHR,74,73.75,142.5,-147.5,-147.5,142.5,142.5,M,Open,B,Raw
4,Vikrant Singh,1989-10-27,,J&K,74,73,140,-145,-145,140,140,M,Open,B,Raw
5,Rajesh Gujrar,1985-01-14,,RAJ,74,72.1,137.5,-142.5,-142.5,137.5,137.5,M,Open,B,Raw
6,Ranjeet Saha,,,JHR,74,70.3,122.5,125,130,130,130,M,Open,B,Raw
7,P. Ramesh,1984-06-04,,TN,74,71.9,130,-132.5,,130,130,M,Open,B,Raw
8,Rudra Narayan Sahoo,1989-06-06,,ODI,74,73.9,130,-145,-145,130,130,M,Open,B,Raw
9,Kamal Singh,,,RAJ,74,72.1,117.5,-125,-132.5,117.5,117.5,M,Open,B,Raw
10,Shaik Allah Bakshi,1991-02-23,,AP,74,72.9,105,115,-135,115,115,M,Open,B,Raw
11,Naresh Kumar,1990-10-15,,HAR,74,71.6,-110,110,-120,110,110,M,Open,B,Raw
12,Bharwad Lalit,1986-01-01,,GUJ,74,71.9,60,90,105,105,105,M,Open,B,Raw
13,Ravi Singh,1986-01-01,,CHT,74,70.6,80,90,-95,90,90,M,Open,B,Raw
14,Rachit Parashar,1985-06-24,,CHT,74,74,75,85,90,90,90,M,Open,B,Raw
15,Aakash,1994-02-10,,UP,74,71.8,85,-90,-90,85,85,M,Open,B,Raw
1,Karan Kumar,1990-10-02,,BIH,83,76.8,157.5,-165,165,165,165,M,Open,B,Raw
2,Narender Pal Singh,1980-07-28,,J&K,83,81.2,152.5,157.5,-165,157.5,157.5,M,Open,B,Raw
3,Mahender Kumar Singh,,1989,JHR,83,81.6,142.5,152.5,155,155,155,M,Open,B,Raw
4,Pradeep Kumar,1988-05-04,,KTK,83,80.5,145,152.5,-157.5,152.5,152.5,M,Open,B,Raw
5,Hemant Kumar Mohnot,1988-11-28,,RAJ,83,81.3,142.5,150,-155,150,150,M,Open,B,Raw
6,Mihir Dey,1992-01-29,,WB,83,81.6,115,122.5,-125,122.5,122.5,M,Open,B,Raw
7,Sk. Nazeer,1987-07-01,,AP,83,80.4,100,110,120,120,120,M,Open,B,Raw
8,Anil Jat,1994-08-08,,MP,83,80.7,90,100,105,105,105,M,Open,B,Raw
9,Anup Kumar Singh,1999-07-08,,UP,83,77.9,85,95,-102.5,95,95,M,Open,B,Raw
10,Boldi Wilson,1991-01-24,,CHT,83,80.6,95,-105,-105,95,95,M,Open,B,Raw
1,Alok Raj,1989-01-16,,BIH,93,92.69,177.5,182.5,185,185,185,M,Open,B,Raw
2,Parul Kumar,1999-02-03,,UP,93,92.62,165,170,-185,170,170,M,Open,B,Raw
3,Adil Ashraf Khan,1988-03-04,,J&K,93,93,155,160,-162.5,160,160,M,Open,B,Raw
4,Ashraf Hussain,1986-07-05,,RAJ,93,91.3,150,157.5,-162.5,157.5,157.5,M,Open,B,Raw
5,Golden,1989-09-25,,DEL,93,90.56,150,155,-160,155,155,M,Open,B,Raw
6,Vijay,1992-01-12,,DEL,93,93,140,145,-150,145,145,M,Open,B,Raw
7,Thaleshwar Singh,1989-11-10,,CHT,93,87.32,130,140,-147.5,140,140,M,Open,B,Raw
8,P. Nageswara Rao,1988-08-15,,AP,93,84.59,110,120,-127.5,120,120,M,Open,B,Raw
9,Mahla Pinal.J,1983-10-13,,GUJ,93,86.51,90,100,110,110,110,M,Open,B,Raw
10,N Arun Kumar,1986-04-09,,AP,93,84.05,100,105,-115,105,105,M,Open,B,Raw
11,Abhishek Kumar Shukla,1993-05-09,,UP,93,85.34,95,100,-102.5,100,100,M,Open,B,Raw
12,S. Jimmy,1984-10-26,,MNP,93,92.56,80,90,95,95,95,M,Open,B,Raw
DQ,Krushna Chandra Prusty,1991-01-20,,ODI,93,85.88,-145,-145,-145,,,M,Open,B,Raw
DQ,Nishant Kumar,1982-02-03,,BIH,93,86.62,-152.5,-152.5,,,,M,Open,B,Raw
1,Bhaskar Shah,,,DEL,105,100.7,182.5,190,,190,190,M,Open,B,Raw
2,Rajinder Kumar,1988-04-18,,PUN,105,102.82,175,182.5,185,185,185,M,Open,B,Raw
3,Ajab Singh,,,DEL,105,98.3,170,-180,180,180,180,M,Open,B,Raw
4,Vijaya Kanchan,1968-07-24,,KTK,105,105,165,175,-182.5,175,175,M,Open,B,Raw
5,Gurdeep Bakshi,1982-09-07,,HAR,105,104.74,155,160,165,165,165,M,Open,B,Raw
6,Kalyan Karade,,,MAH,105,99.95,140,-147.5,147.5,147.5,147.5,M,Open,B,Raw
7,Yogesh Pawar,1989-07-05,,MP,105,99.71,130,140,-145,140,140,M,Open,B,Raw
8,Viraj Borkar,,,GOA,105,99.75,120,130,-140,130,130,M,Open,B,Raw
9,Vicky Thomas,1990-03-10,,CHT,105,98.76,120,-127.5,127.5,127.5,127.5,M,Open,B,Raw
10,T. Khadar Basha,1992-07-16,,AP,105,95.46,110,120,-125,120,120,M,Open,B,Raw
DQ,Devender Nath Bari,,1983,JHR,105,104.89,-150,-150,-150,,,M,Open,B,Raw
1,Anoop Kumar,1985-09-05,,KTK,120,106.7,160,167.5,177.5,177.5,177.5,M,Open,B,Raw
2,M.D.Awved Arshed,1994-05-26,,ODI,120,113,165,177.5,-182.5,177.5,177.5,M,Open,B,Raw
3,Pratik Jadhav,1992-05-12,,MAH,120,111.15,142.5,-152.5,152.5,152.5,152.5,M,Open,B,Raw
4,Yogendra Hardiya,1983-08-17,,MP,120,120,130,142.5,147.5,147.5,147.5,M,Open,B,Raw
5,Rupam Das,1993-06-30,,ASM,120,105.2,115,125,-132.5,125,125,M,Open,B,Raw
6,Amit Toppo,1990-06-06,,CHT,120,118.5,110,115,,115,115,M,Open,B,Raw
1,Parveen,,,DEL,120+,124.2,175,195,220,220,220,M,Open,B,Raw
2,Bhuvanesh Vyas,1992-08-15,,RAJ,120+,128,115,122.5,130,130,130,M,Open,B,Raw
3,K. Prasad Naik,,,GOA,120+,148.93,105,110,,110,110,M,Open,B,Raw
1,Munna Kumar,2001-06-15,,BIH,53,47.75,92.5,95,-100,95,95,M,Sub-Juniors,B,Raw
2,Arindam Das,2001-04-19,,WB,53,48.6,80,85,-90,85,85,M,Sub-Juniors,B,Raw
3,Niranjan Kumar,2000-04-10,,BIH,53,51.8,75,82.5,-85,82.5,82.5,M,Sub-Juniors,B,Raw
4,G. Suresh Kumar,2000-03-10,,TN,53,49.2,70,72.5,-75,72.5,72.5,M,Sub-Juniors,B,Raw
5,Soumya Chakraborty,2001-06-09,,WB,53,50.7,65,-72.5,72.5,72.5,72.5,M,Sub-Juniors,B,Raw
6,Ranjith Kumar. M,2000-07-09,,KTK,53,49.3,55,60,-70,60,60,M,Sub-Juniors,B,Raw
7,Raj Soni,2001-04-02,,GUJ,53,47.5,30,45,47.5,47.5,47.5,M,Sub-Juniors,B,Raw
DQ,Aashis Kumar Solanjki,2001-08-11,,GUJ,53,50.3,-67.5,-72.5,-72.5,,,M,Sub-Juniors,B,Raw
1,Rakshith.D.Bolar,2000-06-03,,KTK,59,57.5,85,90,92.5,92.5,92.5,M,Sub-Juniors,B,Raw
2,Avinash Sharma,2001-02-03,,PUN,59,58.9,67.5,-72.5,72.5,72.5,72.5,M,Sub-Juniors,B,Raw
3,Gopal Kumar,2001-05-10,,JHR,59,58.4,60,65,-67.5,65,65,M,Sub-Juniors,B,Raw
4,B. Naveen Kumar,2001-07-30,,AP,59,58.3,55,60,-65,60,60,M,Sub-Juniors,B,Raw
1,Lav Mali,2000-01-11,,MP,66,63.9,-80,-85,90,90,90,M,Sub-Juniors,B,Raw
2,Amit Sarkar,2001-09-24,,WB,66,64.9,65,72.5,75,75,75,M,Sub-Juniors,B,Raw
3,Vance Fallon Carlo,2003-01-12,,KTK,66,59.9,50,60,67.5,67.5,67.5,M,Sub-Juniors,B,Raw
4,Santhosh. M.K,2000-06-16,,KTK,66,63.25,55,65,67.5,67.5,67.5,M,Sub-Juniors,B,Raw
1,Sahil Prakash,2000-04-01,,BIH,74,68.3,125,-130,-130,125,125,M,Sub-Juniors,B,Raw
2,S. Raymond Rodrigo,2000-08-08,,TN,74,69.5,90,-100,100,100,100,M,Sub-Juniors,B,Raw
3,Gurtejvir Singh,2000-12-04,,PUN,74,72.1,90,95,100,100,100,M,Sub-Juniors,B,Raw
4,L Prashant,2004-06-01,,MNP,74,74,40,45,-55,45,45,M,Sub-Juniors,B,Raw
1,Sonu Kumar,2000-03-14,,HAR,83,82.2,120,140,147.5,147.5,147.5,M,Sub-Juniors,B,Raw
2,Jogender Ram,2000-05-05,,JHR,83,83,120,125,-127.5,125,125,M,Sub-Juniors,B,Raw
3,Sanjeev Kumar Pandey,2001-08-25,,WB,83,78.6,110,-115,115,115,115,M,Sub-Juniors,B,Raw
4,Ravi,,,DEL,83,79.3,100,-110,-110,100,100,M,Sub-Juniors,B,Raw
5,Neeraj Pawar,2001-02-05,,MP,83,81.5,-70,75,-80,75,75,M,Sub-Juniors,B,Raw
6,P. Lakshman Reddy,2001-05-29,,AP,83,74.8,-60,60,67.5,67.5,67.5,M,Sub-Juniors,B,Raw
7,Thajudheen Ashraf,2000-07-19,,KER,83,77.3,-60,-65,65,65,65,M,Sub-Juniors,B,Raw
DQ,Pankaj,,,DEL,83,75.1,-110,-110,-115,,,M,Sub-Juniors,B,Raw
1,Varshith S. Rao,2002-02-25,,KTK,93,88.62,100,110,-115,110,110,M,Sub-Juniors,B,Raw
2,Ruban. L,,,TN,93,89.01,95,102.5,-105,102.5,102.5,M,Sub-Juniors,B,Raw
3,Mackbal Fernandez,2001-06-11,,GOA,93,87.87,80,-85,-85,80,80,M,Sub-Juniors,B,Raw
1,Sidharth Khatri,2001-09-23,,DEL,105,104.38,130,142.5,-147.5,142.5,142.5,M,Sub-Juniors,B,Raw
2,V. Thangapandian,2001-11-11,,TN,105,96.8,130,135,137.5,137.5,137.5,M,Sub-Juniors,B,Raw
3,Mayavanshi Urmish.H,2001-05-23,,GUJ,105,103.1,30,40,-50,40,40,M,Sub-Juniors,B,Raw
1,Diptarka Kumar,2000-12-23,,WB,120,106.1,60,67.5,70,70,70,M,Sub-Juniors,B,Raw
1,Aniket Khatri,,,DEL,120+,120.9,105,110,115,115,115,M,Sub-Juniors,B,Raw
2,Jai Shankar Ojha,2000-12-20,,RAJ,120+,121,70,77.5,80,80,80,M,Sub-Juniors,B,Raw
3,Ashutosh Patel,2001-09-15,,MP,120+,131.28,60,70,80,80,80,M,Sub-Juniors,B,Raw
4,R. Guruprasath,2001-05-20,,TN,120+,135.3,70,85,87.5,87.5,87.5,M,Sub-Juniors,B,Raw
1,Divyanshu Anand,2001-08-08,,JHR,120+,125.1,90,100,105,105,105,M,Sub-Juniors,B,Raw
1,Basanta Kumar Malaka,1995-07-01,,ODI,53,52.8,-95,95,105,105,105,M,Juniors,B,Raw
2,Dinesh Bauri,,1997,JHR,53,51.54,95,100,-102.5,100,100,M,Juniors,B,Raw
3,Ranjeet Kumar,,,JHR,53,53,-90,95,-97.5,95,95,M,Juniors,B,Raw
4,Sagar Rai,1997-11-20,,ASM,53,53,85,-90,90,90,90,M,Juniors,B,Raw
5,Navneet Sharma,1999-03-07,,PUN,53,52.4,80,-92.5,-92.5,80,80,M,Juniors,B,Raw
6,Shivam Tandi,1999-04-25,,CHT,53,49.45,65,72.5,75,75,75,M,Juniors,B,Raw
7,K. Narendra,1998-11-02,,AP,53,52.9,72.5,-80,-80,72.5,72.5,M,Juniors,B,Raw
8,Muhammed Nijad,1998-03-14,,KER,53,46.9,65,-70,70,70,70,M,Juniors,B,Raw
9,Rameez Mahin E M,1997-10-18,,KER,53,51.9,65,70,-75,70,70,M,Juniors,B,Raw
10,Ashish,1998-03-06,,UP,53,49.1,60,-65,-65,60,60,M,Juniors,B,Raw
11,V. Sathish,1999-02-20,,AP,53,52.39,52.5,57.5,-60,57.5,57.5,M,Juniors,B,Raw
1,Bappa Turkey Oraon,1996-06-07,,WB,59,56.2,97.5,-105,105,105,105,M,Juniors,B,Raw
2,Chanchal Gotiya,1999-07-06,,MP,59,59,85,95,100,100,100,M,Juniors,B,Raw
3,Aditya Sharma #2,1996-03-20,,J&K,59,59,90,95,-97.5,95,95,M,Juniors,B,Raw
4,N. Mariselvam,1998-11-28,,TN,59,58.4,90,92.5,-97.5,92.5,92.5,M,Juniors,B,Raw
5,Niraj Kumar,1998-04-15,,BIH,59,58.69,90,-95,-100,90,90,M,Juniors,B,Raw
6,Mohammed Fahim,1996-01-02,,CHT,59,59,85,90,-100,90,90,M,Juniors,B,Raw
7,Chalamala Ramesh,1996-02-09,,AP,59,55.8,80,-90,-92.5,80,80,M,Juniors,B,Raw
1,Mohammad Rameez,1995-07-27,,KTK,66,64.8,115,122.5,125,125,125,M,Juniors,B,Raw
2,Dibakar Gochhayat,1996-06-15,,ODI,66,65.6,115,120,125,125,125,M,Juniors,B,Raw
3,Ashish Dey,1996-01-01,,JHR,66,65.5,120,-127.5,-127.5,120,120,M,Juniors,B,Raw
4,Manish Kumar,1999-04-17,,BIH,66,64.3,112.5,117.5,-120,117.5,117.5,M,Juniors,B,Raw
5,Gurpreet Singh,1995-07-13,,PUN,66,59.9,100,110,112.5,112.5,112.5,M,Juniors,B,Raw
6,Bhaskar Bora,1995-11-02,,ASM,66,62.84,100,105,112.5,112.5,112.5,M,Juniors,B,Raw
7,Kannan,1996-04-10,,TN,66,61,95,-105,-107.5,95,95,M,Juniors,B,Raw
8,K.C.N.S. Narayana,1996-03-21,,AP,66,62.52,95,-105,-107.5,95,95,M,Juniors,B,Raw
9,Vishnu. T.T,1995-03-18,,KER,66,64.7,95,-102.5,-102.5,95,95,M,Juniors,B,Raw
10,Sayak Sarkar,1998-01-20,,WB,66,63.23,80,85,92.5,92.5,92.5,M,Juniors,B,Raw
11,Kunal Nirmalkar,1999-01-03,,CHT,66,61.2,65,70,75,75,75,M,Juniors,B,Raw
12,Jaideep Sahu,1995-01-23,,CHT,66,63.2,75,-80,-80,75,75,M,Juniors,B,Raw
13,Chopra Sunny.D,1999-09-24,,GUJ,66,59.3,-40,60,-65,60,60,M,Juniors,B,Raw
1,Hemant Raj,,1995,JHR,74,73.5,125,-130,130,130,130,M,Juniors,B,Raw
2,Dusmanta Sahoo,1995-06-26,,ODI,74,73.2,115,122.5,-127.5,122.5,122.5,M,Juniors,B,Raw
3,Vikram Singh Shekhawat,1999-06-20,,RAJ,74,70.2,110,115,-122.5,115,115,M,Juniors,B,Raw
4,Chandan Das,1997-01-14,,CHT,74,73.1,105,110,112.5,112.5,112.5,M,Juniors,B,Raw
5,Rahul,1997-07-15,,HAR,74,68.1,-110,-110,110,110,110,M,Juniors,B,Raw
6,Sadasiba Tripathy,1996-05-06,,ODI,74,72.9,90,97.5,105,105,105,M,Juniors,B,Raw
7,Abhishek Pal,1999-11-08,,UP,74,67.7,80,-90,90,90,90,M,Juniors,B,Raw
8,Gaurav Kumar,1998-11-09,,CHT,74,69.9,-80,80,87.5,87.5,87.5,M,Juniors,B,Raw
1,Vikramjit Singh,1998-05-20,,PUN,83,79.6,125,132.5,135,135,135,M,Juniors,B,Raw
2,Sohan Pal,1995-07-31,,PUN,83,78.3,127.5,132.5,-137.5,132.5,132.5,M,Juniors,B,Raw
3,Vikram Deep,1995-04-23,,J&K,83,80.64,120,127.5,132.5,132.5,132.5,M,Juniors,B,Raw
4,Dhaneshwar Sahu,1998-12-16,,JHR,83,79.55,-120,120,-130,120,120,M,Juniors,B,Raw
5,Himraj Das,1994-11-30,,ASM,83,76.66,85,100,102.5,102.5,102.5,M,Juniors,B,Raw
6,Abhinav Bharadwaj,1999-06-26,,BIH,83,76.7,102.5,-105,-105,102.5,102.5,M,Juniors,B,Raw
7,Saiful Islam,1996-06-11,,CHT,83,74.1,-75,75,85,85,85,M,Juniors,B,Raw
8,Shakti Tyagi,1998-02-03,,UP,83,82.2,-85,-85,85,85,85,M,Juniors,B,Raw
9,Shubham Jain,1996-04-24,,MP,83,81.8,-80,80,-85,80,80,M,Juniors,B,Raw
1,Harman Singh Benipal,1997-12-18,,PUN,93,88.2,140,147.5,152.5,152.5,152.5,M,Juniors,B,Raw
2,Amandeep Bassan,1996-09-23,,J&K,93,88.28,137.5,147.5,-152.5,147.5,147.5,M,Juniors,B,Raw
3,Sarfaraz Alam,1996-08-17,,JHR,93,85.86,130,135,-145,135,135,M,Juniors,B,Raw
4,Himanshu,1996-10-21,,HAR,93,91.48,130,135,-145,135,135,M,Juniors,B,Raw
5,Md. Faizan Reza,1997-01-10,,WB,93,85.65,127.5,132.5,-137.5,132.5,132.5,M,Juniors,B,Raw
6,Bikash Dutta,1994-07-06,,ASM,93,85.74,110,120,127.5,127.5,127.5,M,Juniors,B,Raw
7,Shrikant Raut,1995-07-03,,MAH,93,91.42,120,127.5,-132.5,127.5,127.5,M,Juniors,B,Raw
8,Vishal Tyagi,1999-02-24,,UP,93,90.82,117.5,120,-125,120,120,M,Juniors,B,Raw
9,Samrat Mukherjee,1998-08-23,,WB,93,85.32,95,102.5,110,110,110,M,Juniors,B,Raw
DQ,Chandan Kumar,,,JHR,93,86.65,-115,-115,-115,,,M,Juniors,B,Raw
1,Prema Kumar Nayak,1996-10-18,,KTK,105,102.03,140,147.5,152.5,152.5,152.5,M,Juniors,B,Raw
2,S. Balaji,1996-12-05,,TN,105,101.15,130,137.5,-142.5,137.5,137.5,M,Juniors,B,Raw
3,Sudarshan Tiwari,1995-08-18,,MP,105,103.64,130,-135,135,135,135,M,Juniors,B,Raw
4,Mohammed Faijan.M.Shaikh,1998-12-30,,GUJ,105,94.72,90,-110,-110,90,90,M,Juniors,B,Raw
5,Gaurav Sharma,2000-09-11,,J&K,105,95.31,80,87.5,-92.5,87.5,87.5,M,Juniors,B,Raw
1,Abhishek,1996-05-04,,DEL,120,117.2,140,150,155,155,155,M,Juniors,B,Raw
2,Prashant,1995-08-25,,UP,120,109.69,135,140,142.5,142.5,142.5,M,Juniors,B,Raw
3,Abhishek Vishal,1996-07-07,,BIH,120,111.57,127.5,132.5,135,135,135,M,Juniors,B,Raw
4,Raman Kumar,1997-03-15,,J&K,120,111.5,120,127.5,-135,127.5,127.5,M,Juniors,B,Raw
5,Rohan Laishram,1998-07-30,,MNP,120,120,110,115,,115,115,M,Juniors,B,Raw
6,Israr Pasha,1999-01-26,,KTK,120,112.69,90,97.5,-100,97.5,97.5,M,Juniors,B,Raw
7,Mukesh Kumar,1999-11-02,,TN,120,108.2,-80,80,,80,80,M,Juniors,B,Raw
1,Ankit Khatri,,,DEL,120+,135.7,150,160,170,170,170,M,Juniors,B,Raw
2,Abhishek B. Horkeri,1998-06-08,,KTK,120+,131.7,110,120,125,125,125,M,Juniors,B,Raw
1,Binod Patra,1969-11-23,,JHR,59,59,110,120,130,130,130,M,Masters 1,B,Raw
2,Sujit Kumar Giri,1972-04-15,,ODI,59,59,80,-92.5,-95,80,80,M,Masters 1,B,Raw
3,Mahesh Kumar,1975-02-25,,PUN,59,57.4,70,-75,-75,70,70,M,Masters 1,B,Raw
4,Prasanta Kumar Senapati,1969-07-01,,ODI,59,57.55,-55,65,-72.5,65,65,M,Masters 1,B,Raw
1,Sunil Nagori,1976-02-07,,RAJ,66,64.11,100,112.5,120,120,120,M,Masters 1,B,Raw
2,Manoj Kumar,,,JHR,66,64.16,105,110,-115,110,110,M,Masters 1,B,Raw
3,Arvind Shukla,1974-05-22,,MP,66,63.48,100,-110,-115,100,100,M,Masters 1,B,Raw
4,Manjunath.K,1976-03-25,,KTK,66,63.15,90,95,-97.5,95,95,M,Masters 1,B,Raw
5,Sanjay Kehar,1973-07-31,,PUN,66,61.2,80,85,87.5,87.5,87.5,M,Masters 1,B,Raw
6,Raikumar Naorem,1976-01-02,,MNP,66,64.9,60,75,80,80,80,M,Masters 1,B,Raw
1,Sohan Rana,1975-06-17,,MP,74,73.2,125,132.5,-142.5,132.5,132.5,M,Masters 1,B,Raw
2,P.D.Nagaraj,1973-04-20,,KTK,74,69.6,120,125,-130,125,125,M,Masters 1,B,Raw
3,Vinayagam,1977-05-19,,TN,74,73.4,117.5,120,122.5,122.5,122.5,M,Masters 1,B,Raw
4,Ruben Shrivastava,,,DEL,74,72.8,100,110,115,115,115,M,Masters 1,B,Raw
5,Shyam Rathore,1970-05-01,,MP,74,68.7,110,-117.5,-117.5,110,110,M,Masters 1,B,Raw
6,Stephen Gomes,,,GOA,74,73.4,-110,110,-120,110,110,M,Masters 1,B,Raw
7,Shatrughan Lal,1970-07-20,,UP,74,70.3,95,102.5,107.5,107.5,107.5,M,Masters 1,B,Raw
8,Nitin Mhalaskar,1977-09-24,,MAH,74,72.2,95,107.5,-120,107.5,107.5,M,Masters 1,B,Raw
9,Syed Ali,1976-05-31,,TN,74,70,100,-117.5,-122.5,100,100,M,Masters 1,B,Raw
10,Vijoy Ram,1975-10-12,,WB,74,73.5,90,97.5,-100,97.5,97.5,M,Masters 1,B,Raw
11,Ashok Mate,1972-10-05,,MAH,74,72.15,87.5,90,92.5,92.5,92.5,M,Masters 1,B,Raw
12,Jayappa Lamani,1972-07-23,,KTK,74,72.45,90,-102.5,-102.5,90,90,M,Masters 1,B,Raw
13,Dhinendra Kumar,1976-07-04,,RAJ,74,73.1,85,90,-140,90,90,M,Masters 1,B,Raw
1,Mohammed Aman Khan,1977-06-30,,MP,83,79.9,135,145,-150,145,145,M,Masters 1,B,Raw
2,Anand S. Mandia,,,DEL,83,82.9,125,-135,135,135,135,M,Masters 1,B,Raw
3,Umesh Upadhyaya,,,JHR,83,80.39,117.5,120,125,125,125,M,Masters 1,B,Raw
4,Balgovind Tiwari,1972-10-29,,AP,83,81.2,112.5,120,-127.5,120,120,M,Masters 1,B,Raw
5,S. Manikandan,1976-07-13,,TN,83,77,110,115,-120,115,115,M,Masters 1,B,Raw
6,Balveer Singh,1973-12-08,,RAJ,83,81.4,110,-115,-117.5,110,110,M,Masters 1,B,Raw
7,Hirendra Kumar M. Mayavanshi,1971-07-16,,GUJ,83,80.4,80,95,105,105,105,M,Masters 1,B,Raw
8,Santosh Kumar Bhuyan,1970-06-15,,ODI,83,81.12,95,-105,105,105,105,M,Masters 1,B,Raw
9,Radheshyan Sen,1975-09-01,,MP,83,74.5,90,100,102.5,102.5,102.5,M,Masters 1,B,Raw
10,Praffula Kumar Amanatya,1975-04-25,,ODI,83,80.8,90,-97.5,97.5,97.5,97.5,M,Masters 1,B,Raw
11,Kishan Lal,,,PUN,83,81.3,-85,87.5,92.5,92.5,92.5,M,Masters 1,B,Raw
12,Vikram Singh,1977-06-01,,RAJ,83,80.7,75,82.5,-90,82.5,82.5,M,Masters 1,B,Raw
13,Yogendra Kumar N. Rajpal,1974-08-24,,GUJ,83,78.7,50,60,75,75,75,M,Masters 1,B,Raw
DQ,Mukesh Girap,,,GOA,83,81.3,-120,-130,-135,,,M,Masters 1,B,Raw
1,Ravinder Singh,1975-12-27,,HAR,93,93,140,150,-160,150,150,M,Masters 1,B,Raw
2,Anup Verma,1978-07-01,,MP,93,92.1,130,140,-145,140,140,M,Masters 1,B,Raw
3,Robin Kingsly Durai,1972-02-22,,TN,93,89.55,125,130,132.5,132.5,132.5,M,Masters 1,B,Raw
4,Ashir Agha,1975-05-06,,UP,93,87.5,-120,120,130,130,130,M,Masters 1,B,Raw
5,Sanjeev Sharma,1978-07-19,,PUN,93,83.64,105,115,125,125,125,M,Masters 1,B,Raw
6,S. Retheesh Kumar,1977-03-10,,TN,93,89.84,105,110,115,115,115,M,Masters 1,B,Raw
7,Rajahans Mehendale,1972-03-26,,MAH,93,85.16,90,100,102.5,102.5,102.5,M,Masters 1,B,Raw
8,Manoj Kumar Mishra,1976-05-03,,ODI,93,88.74,92.5,102.5,-107.5,102.5,102.5,M,Masters 1,B,Raw
1,Sanjay Midda,,1975,JHR,105,103.9,155,162.5,-167.5,162.5,162.5,M,Masters 1,B,Raw
2,N. Subramanya,1974-08-14,,KTK,105,103.65,140,150,-155,150,150,M,Masters 1,B,Raw
3,Puran Chand,1972-07-18,,DEL,105,100.56,140,147.5,-152.5,147.5,147.5,M,Masters 1,B,Raw
4,Pradeep Kumar Mishra,1973-07-04,,ODI,105,104.72,140,147.5,-152.5,147.5,147.5,M,Masters 1,B,Raw
5,Shailendra Edwin,1969-09-16,,MP,105,96.12,130,145,-152.5,145,145,M,Masters 1,B,Raw
1,Neeraj Chawla,,,DEL,120,113.45,165,175,182.5,182.5,182.5,M,Masters 1,B,Raw
2,Rajesh G. Sutrave,1976-05-25,,KTK,120,117.9,135,142.5,145,145,145,M,Masters 1,B,Raw
3,Vijay Kumar Raul,1969-01-07,,ODI,120,116.8,90,100,110,110,110,M,Masters 1,B,Raw
1,Mohan Raj,1972-01-05,,KTK,120+,125.7,85,95,97.5,97.5,97.5,M,Masters 1,B,Raw
1,B. Ravi,1960-07-17,,TN,59,56.56,80,85,87.5,87.5,87.5,M,Masters 2,B,Raw
1,Arun Sharma,1962-10-02,,DEL,66,64.9,115,-120,120,120,120,M,Masters 2,B,Raw
2,U. Laxman,1965-06-01,,KTK,66,64,90,97.5,-102.5,97.5,97.5,M,Masters 2,B,Raw
3,Narayan Sethi,1960-04-10,,ODI,66,65.23,80,85,92.5,92.5,92.5,M,Masters 2,B,Raw
4,L. Bangaru Naidu,1968-06-06,,ODI,66,60.18,65,75,85,85,85,M,Masters 2,B,Raw
5,G. K. Pali,1967-07-14,,MP,66,,75,85,,85,85,M,Masters 2,B,Raw
6,Honnur Sab,1962-06-01,,KTK,66,65.6,75,80,-85,80,80,M,Masters 2,B,Raw
1,Hemachandra,1964-10-27,,KTK,74,73.8,107.5,112.5,115,115,115,M,Masters 2,B,Raw
2,T. Chinnadurai,1960-01-25,,TN,74,68.45,100,105,107.5,107.5,107.5,M,Masters 2,B,Raw
3,Umesh Shankla,1968-06-20,,RAJ,74,72.1,100,105,107.5,107.5,107.5,M,Masters 2,B,Raw
4,Nashkar Tandon,1964-12-25,,CHT,74,74,85,95,97.5,97.5,97.5,M,Masters 2,B,Raw
5,Trilok Ram Choudhary,1963-09-29,,RAJ,74,72.6,87.5,90,92.5,92.5,92.5,M,Masters 2,B,Raw
6,Ram Deo Deep,1965-06-06,,ODI,74,73.7,85,92.5,-100,92.5,92.5,M,Masters 2,B,Raw
7,Manmohan Singh,1962-07-30,,PUN,74,73.1,85,90,-95,90,90,M,Masters 2,B,Raw
8,Ramesh Sonkar,1962-10-12,,UP,74,68.5,72.5,77.5,-82.5,77.5,77.5,M,Masters 2,B,Raw
1,Gilbert Dias,1964-02-25,,KTK,83,76.8,120,125,130,130,130,M,Masters 2,B,Raw
2,M. Bhaskara Rao,1965-07-01,,AP,83,81.4,105,112.5,117.5,117.5,117.5,M,Masters 2,B,Raw
3,Raj Kumar,,,DEL,83,76.3,110,-115,115,115,115,M,Masters 2,B,Raw
4,Prithvi Raj Malhotra,1964-06-07,,JHR,83,81.86,107.5,-112.5,112.5,112.5,112.5,M,Masters 2,B,Raw
5,Udaypratap Singh,1961-02-10,,MP,83,78.6,90,97.5,100,100,100,M,Masters 2,B,Raw
6,Harmeet Singh,1964-11-06,,JHR,83,80.6,90,97.5,-102.5,97.5,97.5,M,Masters 2,B,Raw
7,Shreeram Tare,1961-03-24,,MP,83,81.6,85,95,-102.5,95,95,M,Masters 2,B,Raw
8,Ram Nagina,1963-04-11,,CHT,83,81,77.5,-82.5,82.5,82.5,82.5,M,Masters 2,B,Raw
9,Ravindra Yadav,1962-03-03,,MAH,83,81.5,57.5,62.5,67.5,67.5,67.5,M,Masters 2,B,Raw
DQ,Ranganathan,1966-10-15,,TN,83,74.8,-100,-105,-105,,,M,Masters 2,B,Raw
1,Shashidar,1967-01-20,,KTK,93,86.7,-120,120,125,125,125,M,Masters 2,B,Raw
2,Veera Raghavan,1961-06-15,,TN,93,93,105,110,115,115,115,M,Masters 2,B,Raw
3,Sanjiv Razdan,1960-11-13,,MP,93,89.73,105,110,-115,110,110,M,Masters 2,B,Raw
4,Jaya Bhatria,1960-01-01,,ODI,93,88.67,95,100,-107.5,100,100,M,Masters 2,B,Raw
1,G. Ramaswamy,1968-03-02,,AP,105,97.13,-105,115,-125,115,115,M,Masters 2,B,Raw
2,E. Sanyasi Rao,1964-05-25,,AP,105,93.7,90,95,100,100,100,M,Masters 2,B,Raw
3,Ronald Lobo,1965-05-22,,KTK,105,100.98,85,90,-95,90,90,M,Masters 2,B,Raw
1,Harjinder Singh,,,PUN,120,110.63,115,125,132.5,132.5,132.5,M,Masters 2,B,Raw
2,Ramesh Kapoor,,,FCI,120,105.56,90,97.5,102.5,102.5,102.5,M,Masters 2,B,Raw
3,Shivananda.A,1966-01-07,,KTK,120,105.2,75,80,85,85,85,M,Masters 2,B,Raw
1,Goutam Banerjee,1961-07-04,,WB,120+,135,100,110,120,120,120,M,Masters 2,B,Raw
1,Srinivasan K.C,1950-08-28,,KER,59,58.17,75,80,85,85,85,M,Masters 3,B,Raw
1,Praveen Kumar,1952-06-05,,DEL,66,62.89,-80,82.5,85,85,85,M,Masters 3,B,Raw
2,Hardeep Singh,1956-10-06,,JHR,66,62.52,-55,55,60,60,60,M,Masters 3,B,Raw
1,Vishan Singh Chouhan,1952-08-03,,RAJ,74,70.3,85,95,102.5,102.5,102.5,M,Masters 3,B,Raw
2,Ravi Kumar,1955-09-16,,KTK,74,72.4,85,92.5,97.5,97.5,97.5,M,Masters 3,B,Raw
3,Onkar Roy,1953-02-09,,JHR,74,69.7,85,95,-97.5,95,95,M,Masters 3,B,Raw
4,Jyotirmoy Burman,1956-12-30,,WB,74,72,85,92.5,-97.5,92.5,92.5,M,Masters 3,B,Raw
5,Satpal,,,DEL,74,73.7,90,-100,-100,90,90,M,Masters 3,B,Raw
6,Basant Kumar Shrivastava,1956-02-15,,CHT,74,67.7,50,55,60,60,60,M,Masters 3,B,Raw
1,Inderjeet Singh,1954-02-07,,JHR,83,80.4,112.5,125,-130,125,125,M,Masters 3,B,Raw
2,Harish Kumar,1952-11-15,,KTK,83,82.3,92.5,95,97.5,97.5,97.5,M,Masters 3,B,Raw
3,Yadava Suvarna,1950-05-08,,KTK,83,75.16,82.5,90,-95,90,90,M,Masters 3,B,Raw
4,Louis Naronha,1957-12-30,,MP,83,80.6,75,85,-92.5,85,85,M,Masters 3,B,Raw
5,Om Prakash Chouhan,1954-06-10,,RAJ,83,80.7,70,80,-90,80,80,M,Masters 3,B,Raw
6,Subarma Mondal,1955-06-18,,WB,83,79.5,-65,70,75,75,75,M,Masters 3,B,Raw
DQ,Utham Kumar,1954-08-28,,KER,83,83,-85,-85,-85,,,M,Masters 3,B,Raw
1,Deepak Kumar Haldar,1958-07-20,,UP,93,85.55,90,100,-105,100,100,M,Masters 3,B,Raw
2,Ronald Joseph Stuart,1956-06-05,,JHR,93,87.72,90,97.5,-105,97.5,97.5,M,Masters 3,B,Raw
3,Ismael Kumar,1956-07-09,,CHT,93,89.78,55,-65,-70,55,55,M,Masters 3,B,Raw
1,Manjunath Mallya,1956-05-08,,KTK,105,93.51,90,100,107.5,107.5,107.5,M,Masters 3,B,Raw
2,Joydeb Ghosh,1957-09-02,,WB,105,95.52,90,100,107.5,107.5,107.5,M,Masters 3,B,Raw
3,Ashok Kr Mehta,1957-09-01,,BIH,105,96.27,-85,85,90,90,90,M,Masters 3,B,Raw
1,Chander Kant Bhalla,1954-03-03,,JHR,120,118,105,115,120,120,120,M,Masters 3,B,Raw
1,Milan Kr. Dey,1945-10-02,,WB,66,61.9,70,75,77.5,77.5,77.5,M,Masters 4,B,Raw
